\beamer@endinputifotherversion {3.33pt}
\select@language {spanish}
\beamer@sectionintoc {1}{Resumen}{2}{0}{1}
\beamer@sectionintoc {2}{Introducci\'on}{4}{0}{2}
\beamer@sectionintoc {3}{Objetivos}{25}{0}{3}
\beamer@sectionintoc {4}{Bibliograf\IeC {\'\i }a}{28}{0}{4}
